…
> nameEx("dummy_tbl")
> ### * dummy_tbl
> 
> flush(stderr()); flush(stdout())
> 
> base::assign(".ptime", proc.time(), pos = "CheckExEnv")
> ### Name: dummy_tbl
> ### Title: Dummy Dataset for Unit Testing
> ### Aliases: dummy_tbl
> ### Keywords: datasets
> 
> ### ** Examples
> 
> dummy_tbl
# A tibble: 1,500 × 8
   studyid    tx    var1   var2   var3   var4    var5 response
   <chr>   <int>   <dbl>  <dbl>  <dbl>  <dbl>   <dbl>    <dbl>
 1 study1      0  0.923  -0.602  0.568  0.258 -0.390     0.533
 2 study1      1  0.672   0.322  0.353  1.10  -0.908     3.30 
 3 study1      0 -1.12   -1.11   1.73   0.314 -0.729     0.804
 4 study1      1 -0.0527  0.981 -0.988 -1.01   1.01     -0.129
 5 study1      1 -0.841  -0.898 -1.19  -0.200 -0.395    -1.69 
 6 study1      0 -0.712   1.25  -1.07  -1.68   0.739    -1.37 
 7 study1      1  1.64   -0.225 -1.16  -0.343 -1.95      0.779
 8 study1      0  1.53    0.819  1.47   2.31   0.619     4.92 
 9 study1      0 -0.404   0.575  1.23   0.413  0.0940    2.33 
10 study1      1 -0.746  -0.581 -1.08   0.329  2.35     -0.520
# ℹ 1,490 more rows
…
